{
  "project_info": {
    "project_number": "710736354932",
    "firebase_url": "https://phase2-28a01.firebaseio.com",
    "project_id": "phase2-28a01",
    "storage_bucket": "phase2-28a01.appspot.com"
  },
  "client": [
    {
      "client_info": {
        "mobilesdk_app_id": "1:710736354932:android:3758c71e764dcbb3",
        "android_client_info": {
          "package_name": "com.auto_clock_in.teamorange.myapplication"
        }
      },
      "oauth_client": [
        {
          "client_id": "710736354932-7l5f67tmlv11lu2f5jc1naufiak3uvdm.apps.googleusercontent.com",
          "client_type": 1,
          "android_info": {
            "package_name": "com.auto_clock_in.teamorange.myapplication",
            "certificate_hash": "aa0b45f6efa3dfd3630e617ecb82f300f85e903e"
          }
        },
        {
          "client_id": "710736354932-er9me1fjt8at0997qtrgrn2uuekcs1gt.apps.googleusercontent.com",
          "client_type": 3
        }
      ],
      "api_key": [
        {
          "current_key": "AIzaSyDN3f5i1WgFmOlqjrCqTdkJ2Q3SngA7sZA"
        }
      ],
      "services": {
        "analytics_service": {
          "status": 1
        },
        "appinvite_service": {
          "status": 2,
          "other_platform_oauth_client": [
            {
              "client_id": "710736354932-er9me1fjt8at0997qtrgrn2uuekcs1gt.apps.googleusercontent.com",
              "client_type": 3
            }
          ]
        },
        "ads_service": {
          "status": 2
        }
      }
    }
  ],
  "configuration_version": "1"
}